^C:\USERS\JAVAJUMPER\SOURCE\REPOS\LAB19\TASK3\X64\DEBUG\TASK3.OBJ
C:\USERS\JAVAJUMPER\SOURCE\REPOS\LAB19\X64\DEBUG\TASK3.EXE
C:\USERS\JAVAJUMPER\SOURCE\REPOS\LAB19\TASK3\X64\DEBUG\TASK3.ILK
C:\USERS\JAVAJUMPER\SOURCE\REPOS\LAB19\X64\DEBUG\TASK3.PDB
